Reproducible Research: Peer Assessment 1
…
if (!file.exists(DATA_DIR)) dir.create(DATA_DIR)
if (!file.exists(file.path(DATA_DIR, 'activity.csv'))) {
  unzip(RAW_DATA_ARCHIVE, exdir=DATA_DIR)
}

We then read in the data using read.csv with default settings.

data <- tibble::as.tibble(read.csv(file.path(DATA_DIR, 'activity.csv')))

After reading in the data we inspect the first few rows in the data set.

print(data)

## # A tibble: 17,568 x 3
##    steps date       interval
##    <int> <fct>         <int>
##  1    NA 2012-10-01        0
##  2    NA 2012-10-01        5
##  3    NA 2012-10-01       10
##  4    NA 2012-10-01       15
##  5    NA 2012-10-01       20
##  6    NA 2012-10-01       25
##  7    NA 2012-10-01       30
##  8    NA 2012-10-01       35
##  9    NA 2012-10-01       40
## 10    NA 2012-10-01       45
## # ... with 17,558 more rows
…
